\headcommand {\beamer@partpages {1}{0}}
\headcommand {\beamer@subsectionpages {1}{0}}
\headcommand {\beamer@sectionpages {1}{0}}
\headcommand {\beamer@documentpages {0}}
\headcommand {\def \inserttotalframenumber {0}}
\beamer@endinputifotherversion {3.36pt}
